{
  "annotations": {
    "list": [
      {
        "builtIn": 1,
        "datasource": "-- Grafana --",
        "enable": true,
        "hide": true,
        "iconColor": "rgba(0, 211, 255, 1)",
        "name": "Annotations & Alerts",
        "target": {
          "limit": 100,
          "matchAny": false,
          "tags": [],
          "type": "dashboard"
        },
        "type": "dashboard"
      }
    ]
  },
  "editable": true,
  "fiscalYearStartMonth": 0,
  "graphTooltip": 0,
  "iteration": 1645023137400,
  "links": [],
  "liveNow": false,
  "panels": [
    {
      "datasource": {
        "type": "mysql",
        "uid": "P430005175C4C7810"
      },
      "fieldConfig": {
        "defaults": {
          "color": {
            "mode": "thresholds"
          },
          "custom": {
            "align": "left",
            "displayMode": "auto"
          },
          "mappings": [],
          "thresholds": {
            "mode": "absolute",
            "steps": [
              {
                "color": "green",
                "value": null
              },
              {
                "color": "red",
                "value": 80
              }
            ]
          }
        },
        "overrides": [
          {
            "matcher": {
              "id": "byName",
              "options": "Doc. ID"
            },
            "properties": [
              {
                "id": "custom.width",
                "value": 118
              }
            ]
          }
        ]
      },
      "gridPos": {
        "h": 4,
        "w": 24,
        "x": 0,
        "y": 0
      },
      "id": 4,
      "options": {
        "footer": {
          "fields": "",
          "reducer": [
            "sum"
          ],
          "show": false
        },
        "showHeader": true,
        "sortBy": []
      },
      "pluginVersion": "8.5.0-pre",
      "targets": [
        {
          "datasource": {
            "type": "mysql",
            "uid": "P430005175C4C7810"
          },
          "format": "table",
          "group": [],
          "metricColumn": "none",
          "rawQuery": true,
          "rawSql": "SELECT\n  doc_id AS \"Doc. ID\",\n  name AS \"Name\",\n  language AS \"Language\",\n  release_date AS \"Release Date\",\n  insertion_date AS \"Insertion Date\",\n  checksum AS \"Checksum\"\nFROM t_documents\nWHERE\n  doc_id = \"$doc_id\"\nLIMIT 1;",
          "refId": "A",
          "select": [
            [
              {
                "params": [
                  "doc_id"
                ],
                "type": "column"
              }
            ]
          ],
          "table": "t_documents",
          "timeColumn": "release_date",
          "timeColumnType": "timestamp",
          "where": [
            {
              "name": "$__timeFilter",
              "params": [],
              "type": "macro"
            }
          ]
        }
      ],
      "title": "Selected Document",
      "type": "table"
    },
    {
      "datasource": {
        "type": "mysql",
        "uid": "P430005175C4C7810"
      },
      "fieldConfig": {
        "defaults": {
          "color": {
            "mode": "thresholds"
          },
          "custom": {
            "align": "left",
            "displayMode": "auto"
          },
          "mappings": [],
          "thresholds": {
            "mode": "absolute",
            "steps": [
              {
                "color": "green",
                "value": null
              },
              {
                "color": "red",
                "value": 80
              }
            ]
          }
        },
        "overrides": [
          {
            "matcher": {
              "id": "byName",
              "options": "Insertion Date"
            },
            "properties": [
              {
                "id": "custom.width",
                "value": 265
              }
            ]
          },
          {
            "matcher": {
              "id": "byName",
              "options": "ID"
            },
            "properties": [
              {
                "id": "custom.width",
                "value": 61
              }
            ]
          }
        ]
      },
      "gridPos": {
        "h": 16,
        "w": 24,
        "x": 0,
        "y": 4
      },
      "id": 2,
      "options": {
        "footer": {
          "fields": "",
          "reducer": [
            "sum"
          ],
          "show": false
        },
        "showHeader": true,
        "sortBy": []
      },
      "pluginVersion": "8.5.0-pre",
      "targets": [
        {
          "datasource": {
            "type": "mysql",
            "uid": "P430005175C4C7810"
          },
          "format": "table",
          "group": [],
          "metricColumn": "none",
          "rawQuery": true,
          "rawSql": "SELECT\n  id AS \"ID\",\n  insertion_date AS \"Insertion Date\",\n  results AS \"References\"\nFROM t_references\nWHERE doc_id = \"$doc_id\"",
          "refId": "A",
          "select": [
            [
              {
                "params": [
                  "doc_id"
                ],
                "type": "column"
              }
            ]
          ],
          "table": "t_references",
          "timeColumn": "release_date",
          "timeColumnType": "timestamp",
          "where": []
        }
      ],
      "title": "Document References",
      "type": "table"
    }
  ],
  "schemaVersion": 35,
  "style": "dark",
  "tags": [],
  "templating": {
    "list": [
      {
        "current": {
          "selected": false,
          "text": "1",
          "value": "1"
        },
        "datasource": {
          "type": "mysql",
          "uid": "P430005175C4C7810"
        },
        "definition": "SELECT  doc_id FROM t_documents ORDER BY doc_id ASC",
        "hide": 0,
        "includeAll": false,
        "label": "Document ID",
        "multi": false,
        "name": "doc_id",
        "options": [],
        "query": "SELECT  doc_id FROM t_documents ORDER BY doc_id ASC",
        "refresh": 1,
        "regex": "",
        "skipUrlSync": false,
        "sort": 3,
        "type": "query"
      }
    ]
  },
  "time": {
    "from": "now-6h",
    "to": "now"
  },
  "timepicker": {},
  "timezone": "",
  "title": "Document Results",
  "uid": "oqjYuZBnz",
  "version": 1,
  "weekStart": ""
}