{
  "annotations": {
    "list": [
      {
        "builtIn": 1,
        "datasource": "-- Grafana --",
        "enable": true,
        "hide": true,
        "iconColor": "rgba(0, 211, 255, 1)",
        "name": "Annotations & Alerts",
        "target": {
          "limit": 100,
          "matchAny": false,
          "tags": [],
          "type": "dashboard"
        },
        "type": "dashboard"
      }
    ]
  },
  "editable": true,
  "fiscalYearStartMonth": 0,
  "graphTooltip": 0,
  "iteration": 1645023342151,
  "links": [],
  "liveNow": false,
  "panels": [
    {
      "datasource": {
        "type": "mysql",
        "uid": "P430005175C4C7810"
      },
      "fieldConfig": {
        "defaults": {
          "color": {
            "mode": "thresholds"
          },
          "mappings": [],
          "thresholds": {
            "mode": "absolute",
            "steps": [
              {
                "color": "green",
                "value": null
              }
            ]
          }
        },
        "overrides": []
      },
      "gridPos": {
        "h": 5,
        "w": 24,
        "x": 0,
        "y": 0
      },
      "id": 6,
      "options": {
        "colorMode": "value",
        "graphMode": "area",
        "justifyMode": "auto",
        "orientation": "auto",
        "reduceOptions": {
          "calcs": [
            "lastNotNull"
          ],
          "fields": "",
          "values": false
        },
        "textMode": "auto"
      },
      "pluginVersion": "8.5.0-pre",
      "targets": [
        {
          "datasource": {
            "type": "mysql",
            "uid": "P430005175C4C7810"
          },
          "format": "table",
          "group": [],
          "metricColumn": "none",
          "rawQuery": true,
          "rawSql": "SELECT\n  count(doc_id)\nFROM t_documents;",
          "refId": "A",
          "select": [
            [
              {
                "params": [
                  "doc_id"
                ],
                "type": "column"
              }
            ]
          ],
          "table": "t_documents",
          "timeColumn": "time",
          "timeColumnType": "datetime",
          "where": [
            {
              "name": "$__timeFilter",
              "params": [],
              "type": "macro"
            }
          ]
        }
      ],
      "title": "Total Documents",
      "type": "stat"
    },
    {
      "datasource": {
        "type": "mysql",
        "uid": "P430005175C4C7810"
      },
      "fieldConfig": {
        "defaults": {
          "color": {
            "mode": "thresholds"
          },
          "custom": {
            "align": "auto",
            "displayMode": "auto"
          },
          "mappings": [],
          "thresholds": {
            "mode": "absolute",
            "steps": [
              {
                "color": "green",
                "value": null
              },
              {
                "color": "red",
                "value": 80
              }
            ]
          }
        },
        "overrides": [
          {
            "matcher": {
              "id": "byName",
              "options": "doc_id"
            },
            "properties": [
              {
                "id": "custom.width",
                "value": 72
              }
            ]
          }
        ]
      },
      "gridPos": {
        "h": 53,
        "w": 24,
        "x": 0,
        "y": 5
      },
      "id": 4,
      "options": {
        "footer": {
          "fields": "",
          "reducer": [
            "sum"
          ],
          "show": false
        },
        "showHeader": true,
        "sortBy": [
          {
            "desc": false,
            "displayName": "doc_id"
          }
        ]
      },
      "pluginVersion": "8.5.0-pre",
      "targets": [
        {
          "datasource": {
            "type": "mysql",
            "uid": "P430005175C4C7810"
          },
          "format": "table",
          "group": [],
          "metricColumn": "name",
          "rawQuery": true,
          "rawSql": "SELECT\n  doc_id AS \"doc_id\",\n  name AS \"name\",\n  language AS \"language\",\n  release_date AS \"release_date\",\n  checksum AS \"checksum\",\n  insertion_date AS \"insertion_date\"\nFROM t_documents\nORDER BY doc_id;",
          "refId": "A",
          "select": [
            [
              {
                "params": [
                  "doc_id"
                ],
                "type": "column"
              },
              {
                "params": [
                  "doc_id"
                ],
                "type": "alias"
              }
            ]
          ],
          "table": "t_documents",
          "timeColumn": "time",
          "timeColumnType": "datetime",
          "where": [
            {
              "name": "$__timeFilter",
              "params": [],
              "type": "macro"
            }
          ]
        }
      ],
      "title": "Documents",
      "type": "table"
    }
  ],
  "refresh": "",
  "schemaVersion": 35,
  "style": "dark",
  "tags": [],
  "templating": {
    "list": []
  },
  "time": {
    "from": "now-5m",
    "to": "now"
  },
  "timepicker": {},
  "timezone": "",
  "title": "Document Overview",
  "uid": "e0kbyzT7z",
  "version": 1,
  "weekStart": ""
}